       58
     1  C      4.55931    3.16105    1.75414     149    51    52    53     2     0     0
     2  C      3.85263    2.26873    1.45150     998     1     3     7     0     0     0
     3  C      2.51280    2.53603    1.24829      87     2     4     6     0     0     0
     4  C      1.62191    1.57908    1.02071      87     3     5    11     0     0     0
     5  H      0.53235    1.74829    0.96650      88     4     0     0     0     0     0
     6  H      2.24221    3.60222    1.31823      88     3     0     0     0     0     0
     7  C      4.26559    0.97621    1.38661      87     2     8     9     0     0     0
     8  H      5.37095    0.74185    1.58103      88     7     0     0     0     0     0
     9  C      3.42513   -0.00944    1.01363      87     7    10    11     0     0     0
    10  H      3.90816   -0.96203    0.54897      88     9     0     0     0     0     0
    11  C      2.01893    0.24458    0.92705     997     4     9    12     0     0     0
    12  N      1.10983   -0.79962    0.63961     999    11    13     0     0     0     0
    13  N     -0.05189   -0.54771    0.19999     999    12    14     0     0     0     0
    14  C     -0.94197   -1.66643    0.26556     997    13    15    19     0     0     0
    15  C     -0.64935   -2.96638    0.54443      87    14    16    18     0     0     0
    16  C     -1.58923   -3.94270    0.77386      87    15    17    23     0     0     0
    17  H     -1.31075   -4.99121    1.07295      88    16     0     0     0     0     0
    18  H      0.46672   -3.13649    0.48484      88    15     0     0     0     0     0
    19  C     -2.27910   -1.31472    0.15777      87    14    20    21     0     0     0
    20  H     -2.61812   -0.28620   -0.17644      88    19     0     0     0     0     0
    21  C     -3.22544   -2.28559    0.35488      87    19    22    23     0     0     0
    22  H     -4.28918   -1.96080    0.26195      88    21     0     0     0     0     0
    23  C     -2.89049   -3.53569    0.70515     998    16    21    24     0     0     0
    24  C     -3.70704   -4.23424    1.04780     149    23    54    55    56     0     0
    25  C      4.13893    4.20624    4.17751     149    26    49    50    51     0     0
    26  C      3.27395    3.56323    4.54028     998    25    27    32     0     0     0
    27  C      3.50958    2.25610    4.93806      87    26    28    48     0     0     0
    28  C      2.53690    1.34527    5.12735      87    27    29    30     0     0     0
    29  H      2.89847    0.36191    5.42080      88    28     0     0     0     0     0
    30  C      1.21636    1.72746    4.86231     997    28    31    35     0     0     0
    31  C      0.94929    3.04536    4.62751      87    30    32    34     0     0     0
    32  C      1.98133    3.97975    4.50439      87    26    31    33     0     0     0
    33  H      1.61846    5.02703    4.34987      88    32     0     0     0     0     0
    34  H     -0.12861    3.48230    4.48522      88    31     0     0     0     0     0
    35  N      0.02277    0.82620    4.73506     999    30    36     0     0     0     0
    36  N      0.32485   -0.41766    4.64681     999    35    37     0     0     0     0
    37  C     -0.71556   -1.45242    4.46046     997    36    38    43     0     0     0
    38  C     -0.30246   -2.76607    4.61950      87    37    39    47     0     0     0
    39  C     -1.13021   -3.80771    4.45753      87    38    40    41     0     0     0
    40  H     -0.75873   -4.86895    4.60838      88    39     0     0     0     0     0
    41  C     -2.42732   -3.59022    4.02176     998    39    42    46     0     0     0
    42  C     -2.77594   -2.30139    3.79167      87    41    43    45     0     0     0
    43  C     -2.01133   -1.24628    4.01979      87    37    42    44     0     0     0
    44  H     -2.34573   -0.22194    3.67634      88    43     0     0     0     0     0
    45  H     -3.78257   -2.14530    3.28522      88    42     0     0     0     0     0
    46  C     -3.20962   -4.39416    3.73788     149    41    56    57    58     0     0
    47  H      0.69902   -3.04611    4.88947      88    38     0     0     0     0     0
    48  H      4.51966    1.98283    5.21117      88    27     0     0     0     0     0
    49  H      3.88255    5.19924    4.43838      82    25     0     0     0     0     0
    50  H      4.93510    4.00830    4.86546      82    25     0     0     0     0     0
    51  S      4.95009    4.78472    2.60077     141    25     1     0     0     0     0
    52  H      5.18608    3.16816    0.85355      82     1     0     0     0     0     0
    53  H      5.15876    2.62360    2.42524      82     1     0     0     0     0     0
    54  H     -3.39583   -5.22515    0.63434      82    24     0     0     0     0     0
    55  H     -4.50799   -3.98699    0.39737      82    24     0     0     0     0     0
    56  S     -4.65102   -4.78541    2.56783     141    46    24     0     0     0     0
    57  H     -3.55662   -4.76550    4.64449      82    46     0     0     0     0     0
    58  H     -2.56088   -5.18094    3.34154      82    46     0     0     0     0     0
